…
    ## # A tibble: 7 × 10
    ##   DayOfWeek   min    Q1 median    Q3   max  mean    sd     n missing
    ##       <int> <dbl> <dbl>  <dbl> <dbl> <dbl> <dbl> <dbl> <int>   <int>
    ## 1         1   -23    -4      0     8   442  9.76  32.1 14616     182
    ## 2         2   -42    -4     -1     6   665  8.46  31.7 14514     289
    ## 3         3   -21    -4     -1     5   372  7.25  27.6 14618     223
    ## 4         4   -36    -3      0     9   508  9.55  30.0 14557     217
    ## 5         5   -22    -3      0    11   483 11.3   32.3 14571     197
    ## 6         6   -29    -4     -1     6   875  7.47  30.6 11304     150
    ## 7         7   -25    -4      0     8   509 10.1   33.4 13667     155

In terms of the averages, delays are minimized on Wednesday and
Saturday. According to the standard deviation, Saturday is more “stable”

    ## # A tibble: 112 × 4
    ## # Groups:   DayOfWeek [7]
    ##    DayOfWeek UniqueCarrier count mean_dep_delay
    ##        <int> <chr>         <int>          <dbl>
    ##  1         1 9E              380           7.09
    ##  2         1 AA             2924          10.8 
    ##  3         1 B6              697          15.3 
    ##  4         1 CO             1439          10.1 
    ##  5         1 DL              333           8.43
    ##  6         1 EV              111          14.6 
    ##  7         1 F9              312           2.82
    ##  8         1 MQ              416           5.86
    ##  9         1 NW               13          -4.31
    ## 10         1 OH              442          16.4 
    ## # … with 102 more rows
…
In 2008, September and October are the best time to fly in terms to the
average.

    ## # A tibble: 36 × 4
    ## # Groups:   Month [12]
    ##    Month Dest  count mean_dep_delay
    ##    <int> <chr> <int>          <dbl>
    ##  1     1 AUS    1463          10.9 
    ##  2     1 DEN      67           2.17
    ##  3     1 HOU      75           4.61
    ##  4     2 AUS    1329          12.4 
    ##  5     2 DEN      67           5.37
    ##  6     2 HOU      53          14.9 
    ##  7     3 AUS    1509          14.8 
    ##  8     3 DEN      88          13.3 
    ##  9     3 HOU      69          16.2 
    ## 10     4 AUS    1386           9.78
    ## # … with 26 more rows
…
We concluded that the most popular song is “Radioactive”.

## Part(B)

    ## # A tibble: 62 × 2
    ##     year diversity
    ##    <int>     <int>
    ##  1  1959       663
    ##  2  1960       700
    ##  3  1961       779
    ##  4  1962       768
    ##  5  1963       754
    ##  6  1964       811
    ##  7  1965       800
    ##  8  1966       832
    ##  9  1967       827
    ## 10  1968       772
    ## # … with 52 more rows
…
